97,52082427
96,28739528
71,47790201
21,71183314
27,74417147
59,69699348
111,6439101
110,4627249
87,3446937
40,11115988
12,3746966
33,41355339
89,48243231
114,8348348
109,8174098
41,32082886
8,337773629
21,22173061
69,71196481
99,27947855
99,70138155
53,62878025
34,22916851
20,08870623
71,52152479
117,1894883
124,3824143
70,0146292
44,46634444
28,6099763
44,85659854
83,02541578
125,73169
107,9836056
43,7979878
27,34777397
33,74766946
75,18015585
124,1668189
114,1580823
59,09002688
18,77603458
21,076672
58,82980985
123,9653276
121,8987902
69,17773974
26,15150074
8,416174691
45,00559727
86,3931236
122,5440957
91,31432099
25,98699002
5,731394385
27,81111793
102,4595405
110,6821293
105,8111373
59,84863467
9,82599777
42,06150003
82,49802257
117,6872814
108,0983285
58,67580445
33,46611397
33,5497891
75,33601123
103,0423819
116,3341359
75,79258167
24,93594219
34,2375819
50,83555797
90,22055012
113,5004254
105,9127038
45,57797684
7,058075397
48,23424343
77,8367573
126,295724
96,88665953
74,88759161
12,51426952
18,4268575
74,86085925
105,6174914
104,2285837
86,96994075
34,54650055
36,26496211
72,04722028
116,5596576
123,6354074
77,25974895
38,13572152
25,90303314
35,53610629
105,9165451
109,6727467
103,365427
60,2599126
36,47202771
37,61749507
65,27545291
116,0285865
98,01119552
62,69566581
14,32819049
12,72674657
72,65225329
123,8560688
127,047574
93,76020867
36,03177436
35,03434816
49,95102755
94,57631781
126,3372947
103,7946741
46,30182193
20,37176862
51,65220076
98,31835934
116,5266226
108,7479998
54,56557976
24,76186634
45,02324704
71,48944655
110,4925462
129,0956606
88,7200619
22,58074894
22,0495168
57,2837574
111,6381843
121,9910035
82,33836088
57,38466772
11,95124824
62,419542
107,1852917
118,4006836
100,7125784
63,84844356
15,98825132
51,18048688
81,18736491
117,537753
111,9932292
83,1548313
39,15301226
31,51475859
56,91900759
100,1228958
132,0119867
80,66244303
46,40046594
10,79339077
68,82022708
94,77314252
112,3027102
94,62571013
46,98916603
33,66808914
47,61477286
96,04024879
122,0949431
120,4543388
63,03811765
32,04505759
47,54245633
76,79361961
106,4022316
103,4130133
82,84191613
47,53868015
13,98224925
60,90252376
97,34971433
111,6987673
86,63241594
55,35574317
13,74718458
62,58613062
110,4070401
134,6207262
100,050833
50,6904248
25,56648564
37,80774204
74,22727005
133,5695813
114,7218794
67,99110329
31,80037031
43,61791331
