123,2519078
115,3084656
99,8480272
96,2223296
100,8823932
103,1878887
104,6677797
120,122506
132,3518674
151,1684778
174,8543789
179,5503035
188,4448965
195,9513766
186,362209
189,2432508
173,2254438
160,9620385
143,7603294
121,837461
104,5178873
96,3860452
95,9352132
98,8303407
98,7696293
104,5132699
119,722284
137,8879517
159,7694259
175,593381
187,8011767
194,3550257
193,3779267
192,7581614
183,3444068
174,9212192
158,5665654
138,2982705
117,3977117
104,37656
96,1313285
91,9887494
91,6748713
96,3057035
110,7286778
118,4431797
140,0195145
163,3000919
170,1906369
181,8147965
190,1230139
188,0068768
183,4413074
183,8190213
170,7223334
151,4620093
130,6522705
113,1517802
99,4603015
96,3278105
93,3602586
97,4024502
100,4280491
110,0022292
123,0513204
138,0804181
159,9407011
178,1601435
179,3842216
186,7998617
184,591008
189,13516
180,0578516
162,0317293
149,8369351
129,7504223
111,4186271
103,3343425
95,7859964
96,0985524
91,313175
99,0350483
115,2603586
126,2945253
139,4702067
163,4013277
177,0321402
182,4286268
191,4508485
188,9300298
184,2888732
180,3025052
163,7053732
142,9927903
125,0438968
114,8723628
98,6621362
89,5270467
94,4109734
97,9478036
23,2264098
42,0934948
59,8074952
48,3370599
106,0596461
121,8376337
118,2129053
105,2479944
112,2103355
107,0399625
74,0414415
89,9952442
75,642965
38,9710926
5,1650006
41,3660453
34,3269565
29,7201473
26,0434963
32,4219262
55,8595734
68,5298908
58,1938269
86,8554021
101,1429746
101,7819382
108,2972913
107,675663
120,6932102
168,1941445
157,2070249
135,9061026
122,0252855
107,2286905
91,3023434
92,6668289
93,5526512
92,8421546
100,5253739
118,15889
127,0059966
145,0148317
167,0221625
178,4887363
186,9977156
187,2799392
180,096685
175,9557026
170,0061215
156,8873235
138,5487867
113,4665406
103,6417165
97,5116074
86,806697
86,723933
91,3083883
105,0724645
113,1786524
135,848255
153,0933258
164,2453262
181,8567962
179,7358935
189,1742599
186,9838394
175,6771559
161,5297155
152,4889839
130,0720193
108,241601
98,357632
92,7119185
84,2182798
87,1077191
91,5240865
100,1551509
116,5129276
133,5632445
152,3408132
172,4310532
182,2846042
187,1369523
187,5941099
180,5268476
175,3208939
163,601293
142,4173384
124,7570515
107,683042
93,9103814
90,1222276
86,0507466
85,8001642
90,8905632
107,2882221
121,7550938
131,6110989
151,0741123
171,703938
