626,2470605
651,6429164
664,3674465
660,8473276
643,1514548
606,0977707
574,3988787
536,995665
509,344391
481,8400563
476,2079153
491,575869
502,6792903
518,7480547
536,5289206
538,6306817
539,7002414
539,6027675
530,3254572
527,7739492
523,7220427
531,2625961
549,8213506
567,0006038
593,1255952
623,2691989
632,0231984
629,5148441
616,3023845
591,6731272
564,1997909
530,6375238
506,8134914
500,4805323
502,1380726
510,9618891
543,6537271
572,0238101
606,3850448
626,1158865
627,967927
624,8724963
595,7989394
563,1501884
532,3951852
500,8484943
478,2938397
466,6136719
475,9804939
487,8112722
521,0768856
542,5227087
556,2620551
571,1480183
570,6721662
573,5398105
567,9959631
566,1897492
562,1463318
565,9918949
586,8598391
606,8694711
623,3043919
644,4641009
644,3999623
633,3550229
608,4999803
577,126462
541,6775991
501,4179666
477,059407
465,7736598
465,1139557
490,773098
519,8547171
553,539178
588,8411207
607,3936997
614,4438473
604,5543863
584,9336407
556,4622079
538,4350126
508,6116229
498,8857737
498,3630912
506,9594679
534,0653564
563,7142853
586,6037734
603,1104844
604,1161342
597,92017
594,4214296
577,6158032
569,6434684
569,9725434
571,5735336
580,4646489
600,6651598
607,4566071
621,039028
613,4934852
590,4103927
564,5706039
534,0716894
499,8817204
469,0832613
453,4481939
444,7332511
456,1784265
488,2118414
528,5423221
577,0864217
606,4930011
629,8065462
635,1232036
628,4773582
613,7355653
591,0277589
566,1971891
540,0669636
530,7224047
534,9679765
545,6715564
560,8845681
582,3538257
593,549872
602,367826
592,2185346
584,3429452
570,0352722
556,5915454
547,5820908
539,1130367
541,5560863
553,2915698
572,3851052
579,0067897
589,4833523
589,6674649
571,9277257
542,058152
512,9084572
489,7072688
471,145023
467,0398293
477,5786135
500,0764854
539,7698724
577,5609179
623,7302817
655,6602469
669,2156407
666,3777633
650,8252079
630,8125411
597,2703366
569,0750236
546,420264
525,951772
526,8023984
528,7879053
549,2240985
559,5655705
564,3474537
569,8295369
564,5203222
545,173862
538,4981269
523,7324939
519,7863164
518,9393163
535,3856887
555,342434
572,4225128
593,3157426
607,6362368
610,0788221
594,0741119
567,1190869
540,1229794
518,6382378
507,3638567
504,805615
517,3663938
539,9567265
576,4187399
616,8974481
647,9485724
666,5492674
669,8009166
657,8517453
629,5505677
602,5187436
560,5782935
529,9502228
505,2884771
492,8292603
491,1385936
